Mapping your Oyster journeys in London with tidygraph and ggraph · Alex Denvir
…
## Parsed with column specification:
## cols(
##   Date = col_character(),
##   Start.Time = col_time(format = ""),
##   End.Time = col_time(format = ""),
##   Journey.Action = col_character(),
##   Charge = col_double(),
##   Credit = col_character(),
##   Balance = col_double(),
##   Note = col_character()
## )

oyster

## # A tibble: 30 x 8
##           Date Start.Time End.Time
##          <chr>     <time>   <time>
##  1 09-Jul-2017   13:49:00 13:58:00
##  2 08-Aug-2017   18:46:00 19:02:00
##  3 02-Aug-2017   15:23:00       NA
##  4 06-Jul-2017   09:16:00 09:48:00
##  5 12-Sep-2016   18:30:00       NA
##  6 29-Mar-2017   19:16:00 19:46:00
##  7 27-Feb-2017   19:55:00       NA
##  8 03-Oct-2016   19:39:00       NA
##  9 26-Sep-2016   21:31:00       NA
## 10 10-Feb-2017   08:47:00 09:23:00
## # ... with 20 more rows, and 5 more variables: Journey.Action <chr>,
## #   Charge <dbl>, Credit <chr>, Balance <dbl>, Note <chr>
…
