…
How I Did It

I tried out a few things, and they didn’t really work - I’ve not done something like this before, and was really lost as to how to approach it. I tried some things with for loops, but it didn’t work. Then I came across this reddit post which was great! It worked!

The code is fairly comprehensible, and it works well, and quickly, without any loops or lots of if else conditions. In fact, the function there is better than anything I managed to make myself, and I’d recommend it. Another reddit user has posted the results of their simulation, but has not published the method, and I couldn’t say whether they’ve used R to do it or not - but their outcomes look accurate and better than mine!

I tried to copy the first method, and improve on it and recode some of it in a way that was more understandable to me. The process followed is to put Russia into group A, then randomly allocate the rest of the pot 1 teams to the groups. Then go through pot by pot and draw each set of teams in a confederation, depending on how restrained they would be. So that means for the 2nd round of the draw, taking the South American teams, determining which groups they are able to go to, and randomly assigning them to one of those - and then putting the European teams and Mexico into the rest of the groups. Then repeat that process through the draw until the end.

library(tidyverse)

seeds <- read_csv("https://gist.github.com/eldenvo/fb0d27fcb5d322b538d06cdc06b1c559/raw/3eaaab91c29d2dde6c9a28377b325844b834df13/seeds.csv")

print(seeds)

## # A tibble: 32 x 4
##          nation  rank   pot        confed
##           <chr> <int> <int>         <chr>
##  1       Russia    65     1        Europe
##  2       Brazil     2     1 South America
##  3         Iran    34     3          Asia
##  4        Japan    44     4          Asia
##  5       Mexico    16     2 North America
##  6      Belgium     5     1        Europe
##  7  South Korea    62     4          Asia
##  8 Saudi Arabia    63     4          Asia
##  9      Germany     1     1        Europe
## 10      England    12     2        Europe
## # ... with 22 more rows
…
    draw <- left_join(draw, r4, by = "group_names")
    
    draw.confeds <- left_join(draw.confeds, r4.confeds,by = "group_names")
    
    groups <- gather(draw, round, nation, -group_names) %>%
      mutate(seed = rep(1:4, each = 8)) %>%
      select(nation, seed, group = group_names) %>%
      arrange(seed, group)

    return(groups)
}

sim_draw(seeds)

## # A tibble: 32 x 3
##       nation  seed group
##        <chr> <int> <chr>
##  1    Russia     1     A
##  2    Brazil     1     B
##  3   Belgium     1     C
##  4  Portugal     1     D
##  5   Germany     1     E
##  6    Poland     1     F
##  7    France     1     G
##  8 Argentina     1     H
##  9      Peru     2     A
## 10   England     2     B
## # ... with 22 more rows
…
