…
```r
library(tidyverse)

seeds <- read_csv("https://gist.github.com/eldenvo/fb0d27fcb5d322b538d06cdc06b1c559/raw/3eaaab91c29d2dde6c9a28377b325844b834df13/seeds.csv")
```


```r
print(seeds)
```

```
## # A tibble: 32 x 4
##          nation  rank   pot        confed
##           <chr> <int> <int>         <chr>
##  1       Russia    65     1        Europe
##  2       Brazil     2     1 South America
##  3         Iran    34     3          Asia
##  4        Japan    44     4          Asia
##  5       Mexico    16     2 North America
##  6      Belgium     5     1        Europe
##  7  South Korea    62     4          Asia
##  8 Saudi Arabia    63     4          Asia
##  9      Germany     1     1        Europe
## 10      England    12     2        Europe
## # ... with 22 more rows
```
…
    groups <- gather(draw, round, nation, -group_names) %>%
      mutate(seed = rep(1:4, each = 8)) %>%
      select(nation, seed, group = group_names) %>%
      arrange(seed, group)
    
    
    return(groups)
}

sim_draw(seeds)
```

```
## # A tibble: 32 x 3
##       nation  seed group
##        <chr> <int> <chr>
##  1    Russia     1     A
##  2    Brazil     1     B
##  3   Belgium     1     C
##  4  Portugal     1     D
##  5   Germany     1     E
##  6    Poland     1     F
##  7    France     1     G
##  8 Argentina     1     H
##  9      Peru     2     A
## 10   England     2     B
## # ... with 22 more rows
```
…
